{
	"parent": "builtin/entity",
    "display": {
        "gui": {
            "rotation": [ 30, -45, 0 ],
            "translation": [ 0, -2, 0],
            "scale":[ 1, 1, 1 ]
        },
        "ground": {
            "rotation": [ 0, 0, 0 ],
            "translation": [ 0, 0, 0],
            "scale":[ 1, 1, 1 ]
        },
        "head": {
            "rotation": [ 0, 0, 0 ],
            "translation": [ 0, 0, 0],
            "scale":[ 1, 1, 1 ]
        },
        "fixed": {
            "rotation": [ 0, 0, 0 ],
            "translation": [ 0, 2, 0],
            "scale":[ 2, 2, 2 ]
        },
        "thirdperson_righthand": {
            "rotation": [ 90, -90, 0 ],
            "translation": [ 0, -2, 2.7],
            "scale":[ -1, -1, -1 ]
        },
		"thirdperson_lefthand": {
            "rotation": [ -90, 90, 0 ],
            "translation": [ 0, -2, 2.7],
            "scale":[ 1, 1, 1 ]
        },
        "firstperson_righthand": {
            "rotation": [ 120, 0, 0 ],
            "translation": [ 0, 2, 0],
            "scale":[ -0.7, -0.7, -0.7 ]
        },
        "firstperson_lefthand": {
            "rotation": [ -60, 0, 0 ],
            "translation": [ 0, 2, 0],
            "scale":[ 0.7, 0.7, 0.7 ]
        }
    }
}
