{
  "result": {
    "item": "lucraftcore:block_titanium"
  },
  "pattern": [
    "XXX",
    "XXX",
    "XXX"
  ],
  "type": "forge:ore_shaped",
  "key": {
    "X": {
      "item": "#INGOTTITANIUM"
    }
  },
  "group": "lucraftcore:ingots_to_block"
}