{
  "result": {
    "item": "lucraftcore:dust_palladium"
  },
  "ingredients": [
    {
      "item": "lucraftcore:hammer",
      "data": 32767
    },
    {
      "item": "lucraftcore:ingot_palladium"
    }
  ],
  "type": "minecraft:crafting_shapeless",
  "group": "lucraftcore:ingot_to_dust"
}