{
  "result": {
    "item": "lucraftcore:ingot_iridium",
    "count": 9
  },
  "pattern": [
    "X"
  ],
  "type": "forge:ore_shaped",
  "key": {
    "X": {
      "item": "#BLOCKIRIDIUM"
    }
  },
  "group": "lucraftcore:block_to_ingots"
}