{
  "result": {
    "item": "lucraftcore:nugget_dwarf_star_alloy",
    "count": 9
  },
  "pattern": [
    "X"
  ],
  "type": "forge:ore_shaped",
  "key": {
    "X": {
      "item": "#INGOTDWARFSTARALLOY"
    }
  },
  "group": "lucraftcore:ingot_to_nuggets"
}