{
  "result": {
    "item": "lucraftcore:plate_titanium"
  },
  "ingredients": [
    {
      "item": "lucraftcore:hammer",
      "data": 32767
    },
    {
      "item": "lucraftcore:ingot_titanium"
    },
    {
      "item": "lucraftcore:ingot_titanium"
    }
  ],
  "type": "minecraft:crafting_shapeless",
  "group": "lucraftcore:ingots_to_plate"
}